{
    "key": "group_5c9734dc5f731",
    "title": "Empresas certificadas",
    "fields": [
        {
            "key": "field_5c97368be4d1c",
            "label": "Empresas",
            "name": "",
            "type": "tab",
            "instructions": "",
            "required": 0,
            "conditional_logic": 0,
            "wrapper": {
                "width": "",
                "class": "",
                "id": ""
            },
            "placement": "top",
            "endpoint": 0
        },
        {
            "key": "field_5c973697e4d1d",
            "label": "Informação",
            "name": "",
            "type": "message",
            "instructions": "",
            "required": 0,
            "conditional_logic": 0,
            "wrapper": {
                "width": "",
                "class": "",
                "id": ""
            },
            "message": "Adicione, atualize ou delete empresas pelo menu \"Empresas Certificadas\".",
            "new_lines": "wpautop",
            "esc_html": 0
        },
        {
            "key": "field_5c97365400fe9",
            "label": "Agende",
            "name": "",
            "type": "tab",
            "instructions": "",
            "required": 0,
            "conditional_logic": 0,
            "wrapper": {
                "width": "",
                "class": "",
                "id": ""
            },
            "placement": "top",
            "endpoint": 0
        },
        {
            "key": "field_5c97365c00fea",
            "label": "Título",
            "name": "agende_titulo",
            "type": "text",
            "instructions": "",
            "required": 0,
            "conditional_logic": 0,
            "wrapper": {
                "width": "",
                "class": "",
                "id": ""
            },
            "default_value": "",
            "placeholder": "",
            "prepend": "",
            "append": "",
            "maxlength": ""
        },
        {
            "key": "field_5c97366600feb",
            "label": "Formulário",
            "name": "agende_formulario",
            "type": "acf_cf7",
            "instructions": "",
            "required": 0,
            "conditional_logic": 0,
            "wrapper": {
                "width": "",
                "class": "",
                "id": ""
            }
        }
    ],
    "location": [
        [
            {
                "param": "post_template",
                "operator": "==",
                "value": "views\/template-empresas-certificadas.blade.php"
            }
        ]
    ],
    "menu_order": 0,
    "position": "normal",
    "style": "default",
    "label_placement": "top",
    "instruction_placement": "label",
    "hide_on_screen": [
        "the_content",
        "excerpt"
    ],
    "active": 1,
    "description": "",
    "modified": 1553416535
}